Offsets:
0x275AC 57 AttackS4Hi Main, GFX
0x2654C 58 AttackS4S Main, GFX, SFX
0x27694 5A AttackS4Lw Main, GFX, SFX
0x89E8 63 AttackAirF Main, SFX
0x27714 1C0 AppealLw Main, GFX, SFX
0x255DC 1C1 AppealLw GFX, SFX
0x242EC 1C6 Win2 GFX, SFX
0x27504 1CE SpecialN GFX, SFX
0x26794 1CF SpecialAirN GFX
0x26054
0x27774
0x26DEC